{
    "KPlugin": {
        "Authors": [
            {
                "Email": "l.lunak@kde.org, mgraesslin@kde.org",
                "Name": "Luboš Luňák, Martin Gräßlin"
            }
        ],
        "Category": "Appearance",
        "Description": "Make windows translucent under different conditions",
        "Description[ar]": "يجعل النوافذ شبه شفافة في شروط مختلفة",
        "Description[az]": "Müxtəlif əməllərdə pəncərənin yarımşəffaf olması",
        "Description[be@latin]": "Robić vokny prazrystymi dla peŭnych umovaŭ",
        "Description[bg]": "Прозрачност на прозорците при определени условия",
        "Description[bs]": "Prozori se provide pod različitim uslovima",
        "Description[ca@valencia]": "Torna translúcides les finestres en diverses condicions",
        "Description[ca]": "Torna translúcides les finestres en diverses condicions",
        "Description[cs]": "Zobrazuje okna různě průhledná",
        "Description[csb]": "Robi òkna przezérnëmi przë ùstalonëch reglach",
        "Description[da]": "Gør vinduer gennemsigtige under forskellige omstændigheder",
        "Description[de]": "Lässt Fenster unter festgelegten Bedingungen durchscheinen",
        "Description[el]": "Εμφάνιση ημιδιαφανών παραθύρων σε διάφορες περιπτώσεις",
        "Description[en_GB]": "Make windows translucent under different conditions",
        "Description[es]": "Hace la ventana translúcida en distintas condiciones",
        "Description[et]": "Akende muutmine läbipaistvaks teatavatel tingimustel",
        "Description[eu]": "Leihoak zeharrargi bihurtzen ditu baldintzen arabera",
        "Description[fi]": "Tee ikkunoista läpikuultavia eri ehtojen alaisina",
        "Description[fr]": "Affiche des fenêtres translucides en fonction de diverses conditions",
        "Description[fy]": "Meitsje finsters trochsichtich ûnder oare kondysjes",
        "Description[ga]": "Déan fuinneoga tréshoilseach uaireanta difriúla",
        "Description[gl]": "Fai translúcidas as xanelas en distintos casos",
        "Description[gu]": "જુદી જુદી સ્થિતિઓમાં વિન્ડોસને પારદર્શક બનાવે છે",
        "Description[he]": "הפיכת חלונות לשקופים חלקית תחת תנאים שונים",
        "Description[hi]": "विभिन्न परिस्थितियों में विंडो को अल्पपारदर्शी करें",
        "Description[hne]": "अलग अलग स्थिति मं विंडो ल अर्धपारदर्सी बनाव",
        "Description[hr]": "Učini prozore prozirnima pod raznim uvjetima",
        "Description[hu]": "Áttetszővé tesz ablakokat bizonyos feltételek teljesülése esetén",
        "Description[ia]": "On face fenestra translucente sub conditiones differente",
        "Description[id]": "Buat jendela bening di bawah kondisi yang berbeda",
        "Description[is]": "Gerir glugga hálfgegnsæa við ýmis tilefni",
        "Description[it]": "Rende le finestre translucide in certe condizioni",
        "Description[ja]": "さまざまな状況でウィンドウを半透明にします",
        "Description[kk]": "Түрлі жағдайда терезелерді мөлдір қылады",
        "Description[km]": "ធ្វើ​ឲ្យ​បង្អួច​ថ្លា​ក្រោមលក្ខខណ្ឌ​ផ្សេងៗ​គ្នា",
        "Description[kn]": "ವಿವಿಧ ಪರಿಸ್ಥಿತಿಗಳಲ್ಲಿ ಕಿಟಕಿಗಳನ್ನು ಅರೆಪಾರದರ್ಶಕಗೊಳಿಸು (ಟ್ರಾನ್ಸ್ಲೂಸೆಂಟ್)",
        "Description[ko]": "다른 조건 하에서 창을 투명하게 만듭니다",
        "Description[lt]": "Esant tam tikroms sąlygoms paverčia langus dalinai permatomais",
        "Description[lv]": "Noteiktos apstākļos padara logus caurspīdīgus",
        "Description[mk]": "Ги прави прозорците провидни во различни ситуации",
        "Description[ml]": "ജാലകങ്ങള്‍ പ്രത്യേക സാഹചര്യങ്ങളില്‍ അര്‍ദ്ധ-സുതാര്യമാക്കുന്നു",
        "Description[mr]": "विविध परिस्थितींमध्ये चौकटी अर्द्ध - पारदर्शक करा",
        "Description[nb]": "Gjør vinduer gjennomskinnelige under forskjellige forhold",
        "Description[nds]": "Finstern bi verscheden Bedingen dörschienen maken",
        "Description[nl]": "Maakt vensters doorschijnend onder andere condities",
        "Description[nn]": "Gjer vindauge i visse tilfelle gjennomsiktige",
        "Description[pa]": "ਵੱਖ ਵੱਖ ਹਾਲਤਾਂ ਵਿੱਚ ਵਿੰਡੋਜ਼ ਬਲੌਰੀ ਬਣਾਓ",
        "Description[pl]": "Okna są prześwitujące w zależności od różnych warunków",
        "Description[pt]": "Torna as janelas translúcidas sob determinadas condições",
        "Description[pt_BR]": "Torna as janelas transparentes em determinadas condições",
        "Description[ro]": "Face ferestrele translucide în diferite condiții",
        "Description[ru]": "Использование полупрозрачности окон при разных событиях",
        "Description[si]": "වෙනස් තත්ව යටතේ කවුළු පාරභාසක කරන්න",
        "Description[sk]": "Zobrazí priesvitné okná za určitých okolností",
        "Description[sl]": "Pod različnimi pogoji postanejo okna prosojna",
        "Description[sr@ijekavian]": "Прозори се провиде под различитим условима",
        "Description[sr@ijekavianlatin]": "Prozori se provide pod različitim uslovima",
        "Description[sr@latin]": "Prozori se provide pod različitim uslovima",
        "Description[sr]": "Прозори се провиде под различитим условима",
        "Description[sv]": "Gör fönster halvgenomskinliga enligt olika villkor",
        "Description[ta]": "Make windows translucent under different conditions",
        "Description[te]": "విభీన్న స్థితులలో విండోను ట్రాన్‍స్‌లూసెంట్‌గా (స్పష్టంగా) వుంచుము",
        "Description[th]": "ทำให้หน้าต่างดูโปร่งแสงภายใต้เงื่อนไขที่แตกต่างกัน",
        "Description[tr]": "Farklı durumlarda pencereleri saydamlaştır",
        "Description[ug]": "كۆزنەك مەلۇم شارائىتتا يېرىم سۈزۈك ئۈنۈمدە كۆرۈنىدۇ",
        "Description[uk]": "Додавання прозорості до вікон за різних умов",
        "Description[vi]": "Làm cửa sổ trong mờ trong các điều kiện khác nhau",
        "Description[wa]": "Rind les purneas voeyoute sorlon diferinnès condicions",
        "Description[x-test]": "xxMake windows translucent under different conditionsxx",
        "Description[zh_CN]": "窗口在某些条件下呈现透明效果",
        "Description[zh_TW]": "在不同的情況下讓視窗變半透明",
        "Icon": "preferences-system-windows-effect-translucency",
        "Id": "kwin4_effect_translucency",
        "License": "GPL",
        "Name": "Translucency",
        "Name[af]": "Deursigtigheid",
        "Name[ar]": "شبه الشفافية",
        "Name[az]": "Yarımşəffaflıq",
        "Name[be@latin]": "Prazrystaść",
        "Name[be]": "Празрыстасць",
        "Name[bg]": "Прозрачност",
        "Name[bn]": "সমস্বচ্ছতা",
        "Name[br]": "Treuzwel",
        "Name[bs]": "Prozirnost",
        "Name[ca@valencia]": "Translucidesa",
        "Name[ca]": "Translucidesa",
        "Name[cs]": "Průhlednost",
        "Name[csb]": "Przezérnota",
        "Name[da]": "Gennemsigtighed",
        "Name[de]": "Transparenz",
        "Name[el]": "Διαφάνεια",
        "Name[en_GB]": "Translucency",
        "Name[eo]": "Diafaneco",
        "Name[es]": "Transparencia",
        "Name[et]": "Läbipaistvus",
        "Name[eu]": "Zeharrargitasuna",
        "Name[fi]": "Läpikuultavuus",
        "Name[fr]": "Translucidité",
        "Name[fy]": "Trochsichtichheid",
        "Name[ga]": "Tréshoilseacht",
        "Name[gl]": "Transparencia",
        "Name[gu]": "પારદર્શકતા",
        "Name[he]": "שקיפות חלקית",
        "Name[hi]": "अल्पपारदर्शिता",
        "Name[hne]": "पारभासी",
        "Name[hr]": "Prozirnost",
        "Name[hu]": "Áttetszőség",
        "Name[ia]": "Translucentia",
        "Name[id]": "Translucency",
        "Name[is]": "Hálfgegnsæi",
        "Name[it]": "Translucenza",
        "Name[ja]": "半透明",
        "Name[ka]": "გამჭვირვალობა",
        "Name[kk]": "Мөлдірлік",
        "Name[km]": "ភាព​ល្អក់",
        "Name[kn]": "ಪಾರದೀಪಕತೆ (ಟ್ರಾನ್ಸಲುಸೆಂಸಿ)",
        "Name[ko]": "반투명",
        "Name[lt]": "Dalinis permatomumas",
        "Name[lv]": "Caurspīdīgums",
        "Name[mai]": "अल्पपारदर्शिता",
        "Name[mk]": "Провидност",
        "Name[ml]": "സുതാര്യം",
        "Name[mr]": "अर्द्ध - पारदर्शकता",
        "Name[nb]": "Gjennomskinnelighet",
        "Name[nds]": "Dörschienen",
        "Name[ne]": "पारभासकता",
        "Name[nl]": "Transparatie",
        "Name[nn]": "Gjennomsikt",
        "Name[pa]": "ਬਲੌਰੀ (ਟਰੈਨਜ਼ਲੂਸਨਟ)",
        "Name[pl]": "Prześwitywanie",
        "Name[pt]": "Translucidez",
        "Name[pt_BR]": "Transparência",
        "Name[ro]": "Transluciditate",
        "Name[ru]": "Полупрозрачность",
        "Name[se]": "Čađačuovgi",
        "Name[si]": "පාරභාසකතාව",
        "Name[sk]": "Priesvitnosť",
        "Name[sl]": "Prosojnost",
        "Name[sr@ijekavian]": "Прозирност",
        "Name[sr@ijekavianlatin]": "Prozirnost",
        "Name[sr@latin]": "Prozirnost",
        "Name[sr]": "Прозирност",
        "Name[sv]": "Genomlysning",
        "Name[ta]": "ஒளிகசிவு",
        "Name[te]": "ట్రాన్‍స్‌లుసెన్సీ",
        "Name[th]": "ความโปร่งแสง",
        "Name[tr]": "Yarısaydamlık",
        "Name[ug]": "يېرىم سۈزۈكلۈك",
        "Name[uk]": "Прозорість",
        "Name[uz@cyrillic]": "Шаффофлик",
        "Name[uz]": "Shaffoflik",
        "Name[vi]": "Độ trong mờ",
        "Name[wa]": "Transparince",
        "Name[x-test]": "xxTranslucencyxx",
        "Name[zh_CN]": "窗口透明度",
        "Name[zh_TW]": "半透明",
        "ServiceTypes": [
            "KWin/Effect",
            "KCModule"
        ],
        "Version": "0.1.0"
    },
    "X-KDE-Ordering": "50",
    "X-KDE-PluginKeyword": "kwin4_effect_translucency",
    "X-KWin-Config-TranslationDomain": "kwin_effects",
    "X-Plasma-API": "javascript",
    "X-Plasma-MainScript": "code/main.js"
}
