{
    "KPlugin": {
        "Authors": [
            {
                "Email": "thomas.luebking@gmail.com",
                "Name": "Thomas Lübking"
            }
        ],
        "Category": "Show Desktop Animation",
        "Description": "Move windows into screen corners",
        "Description[ar]": "تحرك النوافذ إلى زوايا الشاشة",
        "Description[az]": "Pəncərələrin ekranın künclərinə çəkilməsi",
        "Description[bg]": "Преместване на прозорците в ъглите на екрана",
        "Description[ca@valencia]": "Mou les finestres cap a les cantonades de la pantalla",
        "Description[ca]": "Mou les finestres cap a les cantonades de la pantalla",
        "Description[cs]": "Přesunout okna do rohů obrazovky",
        "Description[de]": "Fenster in Bildschirmecken schieben",
        "Description[en_GB]": "Move windows into screen corners",
        "Description[es]": "Mover las ventanas a las esquinas de la pantalla",
        "Description[et]": "Akende liigutamine ekraani nurkadesse",
        "Description[eu]": "Eraman leihoak pantailako bazterretara",
        "Description[fi]": "Siirrä ikkunat näytön kulmiin",
        "Description[fr]": "Déplace les fenêtres dans les coins de l'écran",
        "Description[hu]": "Ablakok mozgatása a képernyő sarkaiba",
        "Description[ia]": "Move fenestra in angulos de schermo",
        "Description[id]": "Pindahkan jendela ke sudut layar",
        "Description[it]": "Sposta le finestre negli angoli dello schermo",
        "Description[ja]": "ウィンドウを画面の角に移動します",
        "Description[ko]": "창을 화면 꼭짓점으로 이동",
        "Description[lt]": "Perkelti langus į kampus",
        "Description[nl]": "Verplaats vensters in de hoeken van het scherm",
        "Description[nn]": "Flytt vindauge til skjermhjørne",
        "Description[pl]": "Rozsuwa okna w narożniki ekranu",
        "Description[pt]": "Mover as janelas para os cantos do ecrã",
        "Description[pt_BR]": "Move as janelas para os cantos da tela",
        "Description[ro]": "Mută ferestrele în colțurile ecranului",
        "Description[ru]": "Перемещение окон в углы экрана",
        "Description[sk]": "Presunúť okná do rohov obrazovky",
        "Description[sl]": "Pomakne okna v kote zaslona",
        "Description[sv]": "Flytta fönster till skärmhörn",
        "Description[ta]": "சாளரங்களை திரையின் மூலைகளுக்க நகர்த்தும்",
        "Description[tr]": "Pencereleri ekran köşelerine taşı",
        "Description[uk]": "Пересування вікон до кутів екрана",
        "Description[vi]": "Di chuyển các cửa sổ đến các góc màn hình",
        "Description[x-test]": "xxMove windows into screen cornersxx",
        "Description[zh_CN]": "按下显示桌面时所有窗口被外推到桌面之外消失",
        "Description[zh_TW]": "將視窗移至螢幕角落",
        "EnabledByDefault": true,
        "Icon": "preferences-system-windows-effect-windowaperture",
        "Id": "kwin4_effect_windowaperture",
        "License": "GPL",
        "Name": "Window Aperture",
        "Name[ar]": "إزاحة النوافذ",
        "Name[az]": "Pəncərələrin səpələnməsi",
        "Name[bg]": "Апертура на прозорци",
        "Name[ca@valencia]": "Obertura de la finestra",
        "Name[ca]": "Obertura de la finestra",
        "Name[cs]": "Mřížka oken",
        "Name[da]": "Vinduesblænding",
        "Name[de]": "Fensteröffnung",
        "Name[el]": "Διάφραγμα παραθύρου",
        "Name[en_GB]": "Window Aperture",
        "Name[es]": "Apertura de ventanas",
        "Name[et]": "Aknaava",
        "Name[eu]": "Leihoa irekitzea",
        "Name[fi]": "Ikkunoiden siirto näytön kulmiin",
        "Name[fr]": "Ouverture de la fenêtre",
        "Name[gl]": "Apertura das xanelas",
        "Name[hu]": "Ablakrekeszek",
        "Name[ia]": "Aperturas de fenestra",
        "Name[id]": "Jendela Aperture",
        "Name[it]": "Apertura delle finestre",
        "Name[ko]": "조리개 모양 배치",
        "Name[lt]": "Lango anga",
        "Name[nb]": "Vindusåpning",
        "Name[nl]": "Vensteropening",
        "Name[nn]": "Vindaugsflukt",
        "Name[pl]": "Przesłona okna",
        "Name[pt]": "Aperto das Janelas",
        "Name[pt_BR]": "Aperto das janelas",
        "Name[ro]": "Diafragmă fereastră",
        "Name[ru]": "Разбрасывание окон в стороны",
        "Name[sk]": "Clona okien",
        "Name[sl]": "Zaslonka okna",
        "Name[sr@ijekavian]": "Бленда прозора",
        "Name[sr@ijekavianlatin]": "Blenda prozora",
        "Name[sr@latin]": "Blenda prozora",
        "Name[sr]": "Бленда прозора",
        "Name[sv]": "Fönsteröppning",
        "Name[ta]": "ஓரத்தில் சாளரங்கள்",
        "Name[tr]": "Pencere Açıklığı",
        "Name[uk]": "Апертура вікна",
        "Name[vi]": "Độ mở cửa sổ",
        "Name[x-test]": "xxWindow Aperturexx",
        "Name[zh_CN]": "窗口外推",
        "Name[zh_TW]": "視窗光圈",
        "ServiceTypes": [
            "KWin/Effect"
        ],
        "Version": "0.1.0"
    },
    "X-KDE-Ordering": "50",
    "X-KWin-Exclusive-Category": "show-desktop",
    "X-Plasma-API": "javascript",
    "X-Plasma-MainScript": "code/main.js"
}
