{
    "KPlugin": {
        "Category": "Window Management",
        "Description": "Helper effect for the task manager",
        "EnabledByDefault": true,
        "Id": "windowview",
        "License": "GPL",
        "Name": "Window View"
    },
    "X-KDE-ConfigModule": "kwin_windowview_config"
}
